<?xml version="1.0" encoding="UTF-8" standalone="no"?>
<!-- Created with Inkscape (http://www.inkscape.org/) -->

<svg
   xmlns:dc="http://purl.org/dc/elements/1.1/"
   xmlns:cc="http://creativecommons.org/ns#"
   xmlns:rdf="http://www.w3.org/1999/02/22-rdf-syntax-ns#"
   xmlns:svg="http://www.w3.org/2000/svg"
   xmlns="http://www.w3.org/2000/svg"
   xmlns:xlink="http://www.w3.org/1999/xlink"
   xmlns:sodipodi="http://sodipodi.sourceforge.net/DTD/sodipodi-0.dtd"
   xmlns:inkscape="http://www.inkscape.org/namespaces/inkscape"
   width="32.712963"
   height="50.293144"
   id="svg2"
   version="1.1"
   inkscape:version="0.48.5 r10040"
   sodipodi:docname="interlagos.svg"
   inkscape:export-filename="C:\Users\Simeon Stocco\Documents\Racing\Formula 1\Other\2014 Interlagos Circuit Map.png"
   inkscape:export-xdpi="120"
   inkscape:export-ydpi="120">
  <defs
     id="defs4">
    <pattern
       inkscape:collect="always"
       xlink:href="#pattern5622"
       id="pattern4239"
       patternTransform="matrix(-0.03697497,-0.03507334,0.03507334,-0.03697497,617.01101,-806.15781)" />
    <pattern
       patternUnits="userSpaceOnUse"
       width="10.793857"
       height="10.773841"
       patternTransform="matrix(-0.5630234,-0.534067,0.534067,-0.5630234,1593.7246,910.57043)"
       id="pattern4256">
      <g
         id="g4248"
         transform="matrix(0.5878912,6.0987118e-3,-6.0987118e-3,0.5878912,-595.3809,-720.7077)">
        <rect
           style="opacity:1;fill:black;fill-opacity:1;stroke:none;stroke-width:0.5;stroke-linecap:round;stroke-linejoin:round;stroke-miterlimit:4;stroke-dasharray:none;stroke-dashoffset:0;stroke-opacity:1"
           id="rect4250"
           width="18.172573"
           height="18.095789"
           x="1025.5348"
           y="1215.2814" />
        <rect
           style="opacity:1;fill:white;fill-opacity:1;stroke:none;stroke-width:0.5;stroke-linecap:round;stroke-linejoin:round;stroke-miterlimit:4;stroke-dasharray:none;stroke-dashoffset:0;stroke-opacity:1"
           id="rect4252"
           width="9.0746527"
           height="9.0746527"
           x="1025.5348"
           y="1215.2814" />
        <rect
           style="opacity:1;fill:white;fill-opacity:1;stroke:none;stroke-width:0.5;stroke-linecap:round;stroke-linejoin:round;stroke-miterlimit:4;stroke-dasharray:none;stroke-dashoffset:0;stroke-opacity:1"
           id="rect4254"
           width="9.0746527"
           height="9.0746527"
           x="1034.6412"
           y="1224.3444" />
      </g>
    </pattern>
    <pattern
       inkscape:collect="always"
       xlink:href="#pattern4256"
       id="pattern5622"
       patternTransform="matrix(-0.5630234,-0.534067,0.534067,-0.5630234,390.30316,988.55513)" />
    <pattern
       patternUnits="userSpaceOnUse"
       width="10.793857"
       height="10.773841"
       patternTransform="matrix(-0.5630234,-0.534067,0.534067,-0.5630234,1593.7246,910.57043)"
       id="pattern3338">
      <g
         id="g3340"
         transform="matrix(0.5878912,6.0987118e-3,-6.0987118e-3,0.5878912,-595.3809,-720.7077)">
        <rect
           style="opacity:1;fill:black;fill-opacity:1;stroke:none;stroke-width:0.5;stroke-linecap:round;stroke-linejoin:round;stroke-miterlimit:4;stroke-dasharray:none;stroke-dashoffset:0;stroke-opacity:1"
           id="rect3342"
           width="18.172573"
           height="18.095789"
           x="1025.5348"
           y="1215.2814" />
        <rect
           style="opacity:1;fill:white;fill-opacity:1;stroke:none;stroke-width:0.5;stroke-linecap:round;stroke-linejoin:round;stroke-miterlimit:4;stroke-dasharray:none;stroke-dashoffset:0;stroke-opacity:1"
           id="rect3344"
           width="9.0746527"
           height="9.0746527"
           x="1025.5348"
           y="1215.2814" />
        <rect
           style="opacity:1;fill:white;fill-opacity:1;stroke:none;stroke-width:0.5;stroke-linecap:round;stroke-linejoin:round;stroke-miterlimit:4;stroke-dasharray:none;stroke-dashoffset:0;stroke-opacity:1"
           id="rect3346"
           width="9.0746527"
           height="9.0746527"
           x="1034.6412"
           y="1224.3444" />
      </g>
    </pattern>
  </defs>
  <sodipodi:namedview
     id="base"
     pagecolor="#ffffff"
     bordercolor="#666666"
     borderopacity="1.0"
     inkscape:pageopacity="0.0"
     inkscape:pageshadow="2"
     inkscape:zoom="11.2"
     inkscape:cx="-25.843227"
     inkscape:cy="40.581137"
     inkscape:document-units="px"
     inkscape:current-layer="layer1"
     showgrid="false"
     inkscape:window-width="1842"
     inkscape:window-height="1171"
     inkscape:window-x="1911"
     inkscape:window-y="-9"
     inkscape:window-maximized="1"
     fit-margin-top="0"
     fit-margin-left="0"
     fit-margin-right="0"
     fit-margin-bottom="0" />
  <metadata
     id="metadata7">
    <rdf:RDF>
      <cc:Work
         rdf:about="">
        <dc:format>image/svg+xml</dc:format>
        <dc:type
           rdf:resource="http://purl.org/dc/dcmitype/StillImage" />
        <dc:title />
      </cc:Work>
    </rdf:RDF>
  </metadata>
  <g
     inkscape:label="Layer 1"
     inkscape:groupmode="layer"
     id="layer1"
     transform="translate(-211.04651,-999.48654)">
    <path
       style="fill:none"
       d="m 215.84968,1037.617 c 0.90816,3.2472 1.74109,6.5233 2.73077,9.7397 0.16331,0.5308 0.39578,0.8463 0.69602,1.3089 0.26109,0.4022 0.5723,0.6656 0.95578,0.9153 0.26888,0.1751 0.68691,0.2304 1.00128,0.1821 0.27729,-0.042 0.56633,-0.2441 0.77372,-0.4552 0.64219,-0.6537 1.10009,-1.3742 1.775,-1.9621 0.26569,-0.2314 0.52389,-0.156 0.86979,-0.1415 0.3823,0.016 0.77156,0.2427 1.13783,0.4095 0.83224,0.3793 1.81166,0.9979 2.66688,1.245 0.51016,0.1474 1.09646,0.01 1.63847,-0.045 0.50479,-0.051 1.03114,-0.099 1.50193,-0.2731 0.51532,-0.1902 1.00934,-0.4913 1.45641,-0.8192 0.69075,-0.5065 1.44545,-1.0108 1.95705,-1.684 0.64139,-0.8439 1.13999,-1.9207 1.38929,-2.9638 0.86655,-3.6257 1.73621,-7.3102 2.57033,-11.0086 1.22914,-5.4498 2.68665,-10.8188 3.82861,-16.2748 0.0869,-0.4151 0.078,-0.8873 -0.0455,-1.2744 -0.10405,-0.326 -0.44422,-0.7459 -0.73373,-0.9291 -0.45387,-0.2871 -1.04474,-0.4375 -1.59295,-0.5461 -1.13576,-0.2251 -2.28668,-0.5417 -3.44289,-0.6321 -0.58844,-0.046 -1.22922,0.088 -1.79109,0.2225 -0.51527,0.1233 -1.00288,0.4351 -1.45641,0.7282 -0.53258,0.3441 -1.12602,0.6723 -1.50193,1.1833 -2.91619,3.9644 -5.53441,8.1994 -8.37438,12.243 -0.34594,0.4925 -0.70432,1.0406 -1.18334,1.3654 -0.41606,0.2821 -0.98944,0.3768 -1.50192,0.4551 -0.57983,0.089 -1.20849,0.1678 -1.775,0.045 -0.76854,-0.1659 -1.55199,-0.5113 -2.23014,-0.9102 -0.35348,-0.208 -0.68978,-0.5409 -0.86474,-0.9102 -0.37119,-0.7837 -0.57675,-1.6847 -0.77372,-2.5488 -0.27334,-1.1992 -0.5323,-2.4291 -0.63719,-3.6411 -0.0316,-0.3658 -0.0341,-0.6336 0.13102,-0.9474 0.096,-0.1825 0.2613,-0.3556 0.44133,-0.4882 0.0791,-0.059 0.16115,-0.1089 0.24136,-0.149 0.19246,-0.096 0.47096,-0.1002 0.6827,-0.045 0.25856,0.066 0.49242,0.2617 0.72821,0.4096 0.53792,0.3375 1.02447,0.8005 1.59295,1.0468 0.34178,0.1482 0.8841,0.074 1.23437,-0.01 0.36276,-0.085 0.7147,-0.3738 1.00128,-0.6371 0.27475,-0.2525 0.46174,-0.6825 0.57006,-1.0229 0.10408,-0.3271 0.068,-0.7583 -0.0455,-1.0924 -0.14434,-0.4244 -0.4516,-0.5861 -0.76039,-0.9258 -0.60147,-0.6616 -1.35649,-1.1919 -2.00257,-1.8205 -0.47657,-0.4637 -0.90992,-1.0297 -1.22057,-1.6013 -0.4479,-0.8241 -0.6568,-1.8075 -0.91025,-2.7307 -0.17134,-0.6242 -0.3124,-1.1573 -0.21929,-1.7346 0.0586,-0.3633 0.49279,-0.747 0.81923,-0.9102 0.21972,-0.1099 0.51374,0.01 0.73878,0.1393 0.35146,0.2034 0.67761,0.6167 0.97462,0.9263 1.12906,1.1771 1.99841,2.3052 3.23923,3.3087 0.50384,0.4074 1.22697,0.5513 1.86603,0.6826 0.46841,0.096 0.9883,0.099 1.45642,0 0.68488,-0.1441 1.36145,-0.4755 1.90601,-0.8891 0.65395,-0.4966 1.13567,-1.2845 1.59296,-2.0025 1.2722,-1.9976 2.3651,-4.075 3.46678,-6.1604 0.17268,-0.3268 0.31565,-0.78 0.22757,-1.0923 -0.0788,-0.2794 -0.43013,-0.5436 -0.72821,-0.6827 -1.29487,-0.6043 -2.45077,-0.9516 -3.82536,-1.3704 -0.5673,-0.1729 -1.18877,-0.2958 -1.77501,-0.2276 -1.62872,0.1897 -3.27343,0.6353 -4.8377,1.1461 -1.40924,0.4602 -2.59792,1.2045 -3.85755,1.9759 -0.69743,0.4271 -1.35476,1.0242 -1.82052,1.684 -0.4445,0.6297 -0.75961,1.3909 -0.95853,2.1524 -0.86305,3.3043 -1.51065,6.563 -2.27565,9.9163 -0.27511,1.206 -0.60919,2.375 -0.63214,3.6061 -0.0225,1.2114 0.0386,2.459 0.3186,3.641 1.02465,4.325 2.39492,8.5874 3.59552,12.8802 z"
       id="path2840"
       sodipodi:nodetypes="csssssssssssssssssssssssssssssssssssssssssssssssssssssssssssssssssss"
       inkscape:connector-curvature="0" />
    <path
       style="fill:none"
       d="m 213.95756,1011.7909 c -0.19024,1.2726 -0.71151,3.8324 -0.96691,4.9357 -0.25936,1.1203 -0.5811,2.2113 -0.5811,3.3491 0,1.1378 0.0707,2.3575 0.32364,3.4778 0.59659,2.6421 1.43031,5.2623 2.16071,7.8738 1.48456,5.3077 2.92685,10.6533 4.59681,15.8839 0.16572,0.5192 0.28763,0.8252 0.66889,1.124 0.18007,0.1412 0.55849,0.085 0.77372,-0.045 0.98328,-0.5974 1.69841,-1.3174 2.70916,-1.8494 0.43049,-0.2266 1.04315,-0.2677 1.50193,-0.1366 0.60318,0.1724 1.41176,0.8632 2.02189,1.0951 0.90696,0.3447 1.90651,0.4328 2.86731,0.4735 0.82937,0.035 1.80288,-0.1716 2.51931,-0.5517 0.77033,-0.4087 1.3713,-1.1949 1.89268,-1.9276 0.60128,-0.845 0.93344,-1.8549 1.29827,-2.8379 0.72747,-1.9601 1.35331,-4.1973 1.9143,-6.2169 0.57684,-2.0766 1.01437,-4.1059 1.53741,-5.9103"
       id="path2842"
       sodipodi:nodetypes="cssssssssssssssss"
       inkscape:connector-curvature="0" />
    <rect
       clip-path="none"
       id="rect4262"
       y="-811.27924"
       x="696.0423"
       height="0"
       width="0"
       style="fill:url(#pattern4239);stroke:none"
       transform="matrix(0.89255153,0.45094541,0.45094541,-0.89255153,0,0)" />
    <path
       style="fill:none;stroke:#000000;stroke-width:2;stroke-linecap:butt;stroke-linejoin:miter;stroke-miterlimit:4;stroke-opacity:1;stroke-dasharray:none"
       d="m 212.40778,1024.4055 4.88569,20.4925 c 0.2682,1.1249 0.55052,1.9966 1.11982,2.8401 0.22688,0.3362 0.51491,0.6665 0.88276,0.8373 0.37677,0.1749 0.83411,0.2316 1.2386,0.1371 0.31338,-0.073 0.6511,-0.3334 0.81311,-0.5206 0.56566,-0.6537 0.82611,-0.8662 1.32171,-1.3416 0.2084,-0.1999 0.50662,-0.3436 0.79948,-0.3857 0.41431,-0.059 0.82404,0.078 1.18369,0.2624 1.14096,0.5848 1.73881,1.0909 2.72023,1.3205 0.80449,0.1883 1.65973,0.1296 2.4786,0.02 0.6207,-0.083 1.2377,-0.2519 1.80826,-0.5102 0.64143,-0.2904 1.2832,-0.6426 1.77244,-1.149 0.87421,-0.9047 1.38253,-1.8736 1.94306,-3.2358 0.20705,-0.503 0.384,-1.0787 0.51131,-1.55 l 6.79252,-25.1468 c 0.25186,-0.9324 -0.0518,-2.6689 -1.42796,-3.0861 -0.10884,-0.033 -0.46353,-0.143 -0.80995,-0.2093 l -2.43951,-0.4666 c -0.50922,-0.097 -1.15988,-0.2243 -1.56257,-0.2084 -0.52813,0.021 -0.85115,0.066 -1.39552,0.2147 -0.57323,0.157 -0.82508,0.2933 -1.30478,0.588 -0.48593,0.2985 -1.17349,0.8085 -1.55438,1.3668 0,0 -5.13867,6.9363 -8.56414,11.6259 -0.29597,0.4052 -0.88199,1.0518 -1.37559,1.3345 -1.13158,0.6484 -3.76713,0.735 -5.36092,-0.5731 -0.72546,-0.5954 -1.18543,-1.7154 -1.32089,-2.2718 -0.37394,-1.536 -0.61388,-2.7081 -0.6715,-3.207 -0.0647,-0.5598 -0.11906,-1.6788 0.022,-2.2245 0.0891,-0.3446 0.29657,-0.6653 0.58778,-0.8699 0.26909,-0.1891 0.90397,-0.2807 1.35454,-0.014 0.89754,0.5314 0.92686,0.7153 1.53036,1.1156 0.40455,0.2683 0.96633,0.2947 1.44245,0.2002 0.39461,-0.078 0.75905,-0.3237 1.04126,-0.6104 0.22299,-0.2266 0.39409,-0.5215 0.46912,-0.8304 0.0907,-0.3732 0.0677,-0.7839 -0.0435,-1.1515 -0.11245,-0.3719 -0.44987,-0.8381 -0.60874,-0.994 -0.87037,-0.8542 -1.14805,-1.138 -1.85012,-1.8787 -0.70608,-0.7449 -1.47833,-2.2022 -1.64804,-3.1696 l -0.31018,-1.7682 c -0.0964,-0.5496 -0.0589,-0.7911 0.004,-1.0287 0.0566,-0.2159 0.19491,-0.4231 0.37512,-0.5548 0.19411,-0.142 0.45391,-0.2374 0.69201,-0.2038 0.37381,0.053 0.69267,0.2985 0.95533,0.6083 l 2.37828,2.8053 c 0.61111,0.7208 1.28063,1.2556 2.11595,1.5028 2.01312,0.5958 4.36847,-0.2725 5.58072,-2.2183 l 3.80675,-6.1104 c 0.2514,-0.4035 0.36622,-0.8841 0.18799,-1.3034 -0.14554,-0.3423 -0.53365,-0.6523 -0.8122,-0.7751 0,0 -1.02255,-0.4627 -1.48863,-0.644 -0.78145,-0.304 -1.45844,-0.564 -2.29234,-0.8202 -0.37238,-0.1143 -0.76859,-0.1468 -1.15799,-0.1574 -0.41376,-0.011 -0.82918,0.034 -1.23769,0.1001 -1.00861,0.1646 -2.013,0.3229 -2.98878,0.6084 -0.69624,0.2038 -1.36564,0.5197 -2.03023,0.784 -0.62976,0.2504 -1.23753,0.556 -1.83377,0.8782 -0.47417,0.2563 -0.7516,0.4147 -1.19025,0.7279 -0.55648,0.3973 -1.19621,0.9826 -1.62589,1.5145 -0.56531,0.6998 -1.21916,1.9341 -1.43607,2.8072 -0.92602,3.7274 -1.77402,7.2239 -2.10914,8.7151 -0.26555,1.1816 -0.62669,2.7042 -0.69763,3.9067 -0.0689,1.1674 -0.0247,2.369 0.33452,3.8759 z"
       id="path5074"
       inkscape:connector-curvature="0"
       sodipodi:nodetypes="sssssssssssssssssssssssssssssssssssssssssssssssssssssssssssssss" />
    <path
       style="fill:none;stroke:#000000;stroke-width:3;stroke-linecap:butt;stroke-linejoin:miter;stroke-miterlimit:4;stroke-opacity:1;stroke-dasharray:none"
       d="m 213.82662,1042.632 5.55237,-1.4878"
       id="path10453"
       inkscape:connector-curvature="0" />
  </g>
</svg>
