<?xml version="1.0" encoding="UTF-8" standalone="no"?>
<!-- Created with Inkscape (http://www.inkscape.org/) -->

<svg
   xmlns:dc="http://purl.org/dc/elements/1.1/"
   xmlns:cc="http://creativecommons.org/ns#"
   xmlns:rdf="http://www.w3.org/1999/02/22-rdf-syntax-ns#"
   xmlns:svg="http://www.w3.org/2000/svg"
   xmlns="http://www.w3.org/2000/svg"
   xmlns:sodipodi="http://sodipodi.sourceforge.net/DTD/sodipodi-0.dtd"
   xmlns:inkscape="http://www.inkscape.org/namespaces/inkscape"
   width="68.441818"
   height="50.085472"
   id="svg2300"
   sodipodi:version="0.32"
   inkscape:version="0.48.5 r10040"
   sodipodi:docname="silverstone.svg"
   inkscape:output_extension="org.inkscape.output.svg.inkscape"
   version="1.1">
  <defs
     id="defs2302">
    <inkscape:perspective
       sodipodi:type="inkscape:persp3d"
       inkscape:vp_x="0 : 300 : 1"
       inkscape:vp_y="0 : 1000 : 0"
       inkscape:vp_z="800 : 300 : 1"
       inkscape:persp3d-origin="400 : 200 : 1"
       id="perspective106" />
    <marker
       refX="0"
       refY="0"
       orient="auto"
       id="Arrow2Mstart"
       style="overflow:visible">
      <path
         inkscape:connector-curvature="0"
         d="M 8.7185878,4.0337352 -2.2072895,0.01601326 8.7185884,-4.0017078 c -1.7454984,2.3720609 -1.7354408,5.6174519 -6e-7,8.035443 z"
         transform="scale(0.6,0.6)"
         id="path3235-9"
         style="fill-rule:evenodd;stroke-width:0.625;stroke-linejoin:round" />
    </marker>
  </defs>
  <sodipodi:namedview
     id="base"
     pagecolor="#ffffff"
     bordercolor="#666666"
     borderopacity="1.0"
     inkscape:pageopacity="0.0"
     inkscape:pageshadow="2"
     inkscape:zoom="11.946543"
     inkscape:cx="30.615607"
     inkscape:cy="17.803656"
     inkscape:current-layer="layer1"
     inkscape:document-units="px"
     inkscape:window-width="1842"
     inkscape:window-height="1171"
     inkscape:window-x="1911"
     inkscape:window-y="-9"
     showgrid="false"
     inkscape:window-maximized="1"
     fit-margin-top="0"
     fit-margin-left="0"
     fit-margin-right="0"
     fit-margin-bottom="0">
    <inkscape:grid
       type="xygrid"
       id="grid3313"
       empspacing="5"
       visible="true"
       enabled="true"
       snapvisiblegridlinesonly="true"
       originx="-382.54047px"
       originy="-31.304266px" />
  </sodipodi:namedview>
  <metadata
     id="metadata2305">
    <rdf:RDF>
      <cc:Work
         rdf:about="">
        <dc:format>image/svg+xml</dc:format>
        <dc:type
           rdf:resource="http://purl.org/dc/dcmitype/StillImage" />
        <dc:title />
      </cc:Work>
    </rdf:RDF>
  </metadata>
  <g
     id="layer1"
     inkscape:label="Layer 1"
     inkscape:groupmode="layer"
     transform="translate(-382.54047,-518.61026)">
    <path
       inkscape:connector-curvature="0"
       style="fill:none;stroke:#000000;stroke-width:2;stroke-linecap:butt;stroke-linejoin:round;stroke-miterlimit:4;stroke-opacity:1;stroke-dasharray:none"
       d="m 384.83411,530.04381 c 0.3597,-2.64816 0.76242,-4.51198 1.27722,-7.14806 0.15993,-0.81892 0.85727,-1.61934 1.23686,-1.90335 0.61677,-0.46144 1.8854,-0.98641 2.65752,-1.10574 2.24111,-0.34634 3.92437,-0.30548 6.2124,-0.20687 1.9715,0.085 4.06804,0.39897 6.076,0.87057 1.67611,0.39365 3.47389,1.01271 5.19841,1.125 1.30835,0.0852 2.45757,-0.26056 3.65492,-0.68227 0.47827,-0.16846 1.33655,-0.20031 2.02255,0.31251 0.72554,0.54238 1.50472,1.11975 2.30303,1.6031 0.71623,0.43367 1.50187,0.85592 2.29069,0.98142 0.80837,0.12861 1.54811,-0.16002 2.3668,-0.39189 0.61425,-0.17396 1.02225,-0.66893 1.89066,-0.63858 0.7773,0.0272 1.31102,0.22184 1.83685,0.54084 0.47799,0.28998 0.88473,0.73603 1.11031,1.27719 0.4514,1.08287 0.55765,2.33482 1.07316,3.38475 0.47448,0.96634 1.23544,1.84311 2.05199,2.57378 4.65609,4.16638 9.42653,8.3491 14.0654,12.64978 2.42844,2.2514 4.72857,4.54181 6.86166,7.01458 0.51925,0.60195 0.93764,1.53145 0.96067,2.29114 0.0229,0.75355 -0.32094,1.65298 -0.7646,2.27211 -0.44452,0.62036 -1.17363,1.07017 -1.90844,1.34108 -1.30913,0.48268 -3.23177,0.3283 -4.47796,1.00395 -2.82549,1.5319 -5.41651,2.83277 -8.52405,4.3277 -0.79164,0.38082 -0.737,0.9737 -0.57352,1.27567 0.27549,0.50889 0.75007,1.02593 0.76344,1.53844 0.019,0.72913 -0.24309,1.57264 -0.86503,2.17427 -0.5967,0.5772 -1.48351,1.05761 -2.33653,1.14768 -0.87922,0.0929 -1.96382,-0.0951 -2.72873,-0.54594 -0.98921,-0.5831 -1.76618,-1.63508 -2.53362,-2.55596 -3.82976,-4.59556 -7.26828,-8.48151 -11.3845,-12.79122 -1.208,-1.26477 0.15035,-3.30398 0.58288,-3.89198 0.26905,-0.3658 2.11259,-3.64629 2.39589,-5.35702 0.27024,-1.63187 -1.01476,-4.24208 -2.4277,-6.12438 -1.36538,-1.81895 -2.45978,-2.77812 -2.2966,-3.32423 0.16319,-0.5461 0,-0.94486 2.83458,-0.94486 3.06495,-0.11038 3.77944,-0.94486 1.88972,-2.83457 -3.77944,-2.83459 -5.2551,-3.12289 -7.69743,-1.39121 -11.32013,8.02511 -12.54627,8.37535 -19.62181,14.89574 -0.5082,0.22708 -0.83827,0.95838 -0.7415,1.43595 0.10201,0.50343 0.62628,1.04316 1.20394,1.24943 0.81835,0.2922 1.77367,0.61583 2.57633,0.94047 0.46504,0.18811 0.84402,0.77634 0.97059,1.25083 0.14268,0.53488 0.10057,1.29619 -0.16282,1.77729 -0.27853,0.50877 -0.92098,0.93915 -1.47132,1.00224 -0.71623,0.0821 -1.57561,-0.38329 -2.199,-0.88793 -1.71531,-1.38857 -3.48735,-2.72397 -4.84854,-4.43462 -0.86853,-1.09152 -2.16559,-2.90998 -2.09136,-4.27652 0.1978,-3.64107 0.77479,-7.02292 1.29059,-10.82032 z"
       id="path2552-7"
       sodipodi:nodetypes="cssssssssssssssssssssssssssssssssszccccssssssssssc" />
    <g
       id="g4342-6"
       transform="matrix(0.11543732,0.0037783,-0.00406536,0.10728602,262.47842,345.78289)"
       style="stroke-width:26.94060898;stroke-miterlimit:4;stroke-dasharray:none">
      <g
         transform="translate(-99.972483,57.371556)"
         id="g4399-6"
         style="stroke-width:26.94060898;stroke-miterlimit:4;stroke-dasharray:none">
        <g
           transform="matrix(1.4625542,-0.05843315,0.05813862,1.462575,786.7958,1221.4378)"
           id="g3260"
           style="stroke-width:18.40550613;stroke-miterlimit:4;stroke-dasharray:none">
          <g
             id="text3227-2-8-1"
             style="font-size:18px;font-style:normal;font-variant:normal;font-weight:normal;font-stretch:normal;text-align:start;line-height:125%;letter-spacing:0px;word-spacing:0px;writing-mode:lr-tb;text-anchor:start;fill:#000000;fill-opacity:1;stroke:none;font-family:DejaVu Sans Condensed;-inkscape-font-specification:'DejaVu Sans Condensed,'"
             transform="matrix(0.99997404,0.00720566,-0.00720566,0.99997404,0,0)">
            <path
               style="fill:none;stroke:#000000;stroke-width:18.68512726;stroke-linecap:butt;stroke-linejoin:miter;stroke-miterlimit:4;stroke-opacity:1;stroke-dasharray:none"
               d="m 477.4204,525.42156 c 28.88434,-26.87191 28.88434,-26.87191 28.88434,-26.87191"
               id="path17171"
               inkscape:connector-curvature="0"
               transform="matrix(0.98378933,-0.00243661,0.00264157,0.98627584,34.710167,-14.580295)" />
          </g>
        </g>
      </g>
    </g>
  </g>
</svg>
