<?xml version="1.0" encoding="UTF-8" standalone="no"?>
<!-- Created with Inkscape (http://www.inkscape.org/) -->

<svg
   xmlns:dc="http://purl.org/dc/elements/1.1/"
   xmlns:cc="http://creativecommons.org/ns#"
   xmlns:rdf="http://www.w3.org/1999/02/22-rdf-syntax-ns#"
   xmlns:svg="http://www.w3.org/2000/svg"
   xmlns="http://www.w3.org/2000/svg"
   xmlns:sodipodi="http://sodipodi.sourceforge.net/DTD/sodipodi-0.dtd"
   xmlns:inkscape="http://www.inkscape.org/namespaces/inkscape"
   width="53.734558"
   height="50.496639"
   id="svg3776"
   version="1.1"
   inkscape:version="0.48.5 r10040"
   sodipodi:docname="suzuka.svg">
  <defs
     id="defs3778" />
  <sodipodi:namedview
     id="base"
     pagecolor="#ffffff"
     bordercolor="#666666"
     borderopacity="1.0"
     inkscape:pageopacity="0.0"
     inkscape:pageshadow="2"
     inkscape:zoom="7.344836"
     inkscape:cx="32.722251"
     inkscape:cy="9.7556853"
     inkscape:document-units="px"
     inkscape:current-layer="layer1"
     showgrid="false"
     fit-margin-top="0"
     fit-margin-left="0"
     fit-margin-right="0"
     fit-margin-bottom="0"
     inkscape:window-width="1842"
     inkscape:window-height="1171"
     inkscape:window-x="1911"
     inkscape:window-y="-9"
     inkscape:window-maximized="1" />
  <metadata
     id="metadata3781">
    <rdf:RDF>
      <cc:Work
         rdf:about="">
        <dc:format>image/svg+xml</dc:format>
        <dc:type
           rdf:resource="http://purl.org/dc/dcmitype/StillImage" />
        <dc:title />
      </cc:Work>
    </rdf:RDF>
  </metadata>
  <g
     inkscape:label="Layer 1"
     inkscape:groupmode="layer"
     id="layer1"
     transform="translate(-437.98137,-718.96839)">
    <path
       style="fill:none;stroke:#000000;stroke-width:2;stroke-linecap:butt;stroke-linejoin:miter;stroke-miterlimit:4;stroke-opacity:1;stroke-dasharray:none"
       d="m 472.44235,724.2783 13.4705,-4.18819 c 1.50565,-0.34711 2.80554,0.0894 3.74181,0.78775 0.51796,0.47348 0.95937,1.04406 1.0372,1.64114 0.0641,0.45959 -0.0129,0.89902 -0.0788,1.35231 -0.20754,0.85665 -0.54911,1.37502 -1.35231,1.49672 l -0.68272,0.13128 c -1.34566,0.2071 -2.68061,0.46572 -4.01751,0.72211 -0.59613,0.0836 -0.9976,0.35808 -1.47046,0.69584 -0.70678,0.59233 -1.3062,1.2869 -1.8906,1.99564 l -0.45952,0.56455 c -0.27778,0.4319 -0.80692,0.56433 -1.36544,0.45951 l -0.86651,-0.22319 -0.78775,-0.17067 -0.55143,-0.0394 c -1.11972,-0.10071 -1.59283,0.48105 -1.9825,1.41796 l -0.30197,0.86652 -0.24945,0.70897 -0.42013,0.7221 c -0.90528,0.71622 -1.90645,0.49973 -2.90154,0.0919 l -0.80088,-0.65646 -0.66959,-0.65646 c -0.96914,-1.03841 -1.91896,-1.35339 -3.19038,-0.814 -0.64209,0.4559 -1.17104,1.00734 -1.68054,1.60175 -0.60612,0.71135 -1.08174,1.44457 -1.33917,2.33699 -0.20899,1.13193 0.0124,2.14408 0.34136,3.21664 l 0.52517,1.08972 c 0.56496,1.53048 1.34812,2.89527 2.24508,4.24071 l 0.61707,0.98468 c 0.29932,0.62371 0.2509,1.21638 0.0525,1.85121 l -0.94529,1.86435 -0.73524,1.07659 c -0.45051,0.38372 -0.86183,0.37611 -1.41794,0.30197 l -4.08317,-1.29979 -5.26478,-1.68053 c -0.70332,-0.35025 -1.33912,-0.80119 -1.98251,-1.24727 l -2.00876,-1.95624 c -1.75621,-0.74101 -2.54746,0.60091 -1.65427,1.85121 1.0854,1.18577 2.22846,2.31336 3.3742,3.43984 l 1.52298,1.60175 c 0.63068,0.93015 0.81789,1.90198 0.73523,2.98032 -0.45929,1.56468 -1.67454,3.15184 -2.90154,4.10942 l -10.33265,3.37419 c -1.64531,0.56106 -2.3708,2.00241 -2.73085,3.28228 -0.0412,1.34173 0.0513,2.45022 0.95843,3.43984 l 0.85339,0.56456 c 1.16455,0.51085 2.0868,0.19383 3.13786,-0.38075 l 10.30638,-9.64993 8.20572,-8.79652 0.65646,-1.14224 c 0.72594,-2.18576 0.53392,-4.74578 -0.30197,-6.44641 l -2.15319,-5.50111 c -0.34761,-1.92419 0.20441,-2.40231 0.98469,-3.00658 0.51571,-0.38614 0.55014,-0.55606 0.52517,-1.15536 l -0.11816,-1.68053 -0.0394,-1.50985 c 0.23723,-1.01078 1.22996,-1.97602 2.45514,-2.2057 2.89357,-0.98107 5.06157,-1.56044 7.98253,-2.45515 z"
       id="path3795"
       inkscape:connector-curvature="0"
       sodipodi:nodetypes="cccccccccccccccccccccccccccccccccccccccccccccccccccccccccc" />
    <path
       style="fill:none;stroke:#000000;stroke-width:3;stroke-linecap:butt;stroke-linejoin:miter;stroke-miterlimit:4;stroke-opacity:1;stroke-dasharray:none"
       d="m 471.05404,721.28963 2.01946,6.16247"
       id="path4305"
       inkscape:connector-curvature="0" />
  </g>
</svg>
