rok	misto	startovalo	diskvalifikovano	kola a brzdy	motor a palivo	nehody	ostatní	řazení	šasi
1950	Monaco	19	0	0	2	9	0	1	0
1950	Monza	26	0	1	11	0	1	5	1
1950	Bremgarten	18	0	0	2	2	0	2	1
1950	Indianapolis	34	0	0	0	0	0	0	0
1950	Spa-Francorchamps	14	0	0	4	0	0	0	0
1950	Reims	19	0	0	10	0	0	0	0
1950	Silverstone	22	0	0	6	0	1	3	0
1951	Reims	23	0	0	8	1	0	3	0
1951	Pedralbes	19	0	1	5	2	0	0	1
1951	Bremgarten	21	0	0	3	3	1	0	0
1951	Silverstone	19	0	1	2	0	0	2	1
1951	Nürburgring	22	0	0	7	2	1	1	0
1951	Spa-Francorchamps	13	0	0	1	0	0	2	1
1951	Indianapolis	34	0	0	0	0	0	0	0
1951	Monza	20	0	0	10	0	0	1	0
1952	Zandvoort	17	0	0	5	0	0	3	0
1952	Monza	23	0	0	5	0	0	2	1
1952	Silverstone	31	0	2	5	0	0	2	0
1952	Rouen-les-Essarts	21	0	0	4	0	1	3	0
1952	Bremgarten	21	0	0	5	3	5	0	0
1952	Spa-Francorchamps	22	0	0	1	3	1	2	0
1952	Nürburgring	30	1	2	9	1	0	4	1
1952	Indianapolis	33	0	0	0	0	0	0	0
1953	Silverstone	28	0	0	5	2	1	7	3
1953	Nürburgring	34	0	0	11	1	1	3	2
1953	Reims	25	0	0	5	0	0	4	1
1953	Spa-Francorchamps	20	0	0	5	0	1	2	1
1953	Zandvoort	18	0	0	2	0	0	4	3
1953	Monza	28	0	0	6	2	1	1	1
1953	Buenos Aires	17	0	2	0	1	0	3	1
1953	Bremgarten	20	0	0	6	2	1	2	0
1953	Indianapolis	34	0	0	0	0	0	0	0
1954	Bremgarten	16	0	0	6	0	0	2	0
1954	Pedralbes	22	0	3	6	0	1	3	0
1954	Buenos Aires	16	2	0	2	2	0	1	0
1954	Monza	20	0	0	3	1	0	4	1
1954	Reims	21	0	0	11	0	0	4	0
1954	Spa-Francorchamps	14	0	0	6	0	0	0	1
1954	Nürburgring	20	0	2	4	0	1	2	1
1954	Silverstone	31	0	0	8	3	2	2	1
1954	Indianapolis	36	0	0	0	0	0	0	0
1955	Monza	20	0	0	6	0	0	3	2
1955	Zandvoort	16	0	1	0	1	1	1	1
1955	Buenos Aires	22	0	0	4	5	3	2	0
1955	Spa-Francorchamps	13	0	0	1	1	0	2	0
1955	Aintree	25	0	2	6	0	1	5	2
1955	Monaco	21	0	0	3	1	1	3	3
1955	Indianapolis	35	0	0	0	0	0	0	0
1956	Silverstone	28	0	1	11	0	0	2	3
1956	Reims	19	0	1	3	0	0	3	1
1956	Monaco	15	0	1	2	2	0	1	0
1956	Monza	25	0	2	3	0	3	2	4
1956	Nürburgring	18	1	0	6	0	3	0	3
1956	Buenos Aires	15	0	0	3	2	0	1	1
1956	Spa-Francorchamps	15	0	1	2	1	0	3	0
1956	Indianapolis	33	0	0	0	0	0	0	0
1957	Nürburgring	24	0	1	3	0	0	2	3
1957	Buenos Aires	16	0	0	1	0	0	3	0
1957	Monza	19	0	0	7	0	0	0	0
1957	Pescara	16	0	0	6	2	0	0	1
1957	Rouen-les-Essarts	15	0	0	2	2	1	1	2
1957	Monaco	16	0	0	1	5	1	1	1
1957	Indianapolis	33	0	0	0	0	0	0	0
1957	Aintree	18	0	0	5	0	1	4	0
1958	Zandvoort	17	0	0	2	0	1	0	3
1958	Spa-Francorchamps	19	0	0	8	1	0	0	0
1958	Monaco	16	0	1	6	1	0	1	1
1958	Reims	21	0	0	6	2	1	1	0
1958	Porto	16	0	1	1	4	1	0	0
1958	Buenos Aires	10	0	0	0	0	0	0	1
1958	Indianapolis	33	0	0	0	0	0	0	0
1958	Ain-Diab	25	0	0	4	5	0	0	0
1958	Nürburgring	25	0	1	6	3	1	1	2
1958	Monza	21	0	1	5	5	0	2	1
1958	Silverstone	20	0	1	7	0	0	3	0
1959	Reims	21	1	1	5	0	1	0	2
1959	Zandvoort	15	0	0	4	0	0	1	0
1959	Monaco	16	0	1	3	4	0	2	0
1959	Monsanto	16	0	0	1	3	0	2	0
1959	Sebring	18	0	1	2	1	0	7	0
1959	Avus	15	0	0	1	1	0	5	1
1959	Monza	21	0	1	5	0	0	0	0
1959	Aintree	24	0	0	2	1	2	5	1
1959	Indianapolis	33	0	0	0	0	0	0	0
1960	Spa-Francorchamps	17	0	0	5	2	1	3	0
1960	Zandvoort	17	0	1	2	2	0	4	0
1960	Porto	15	1	0	2	1	0	3	1
1960	Monaco	16	1	0	2	0	0	3	1
1960	Reims	20	0	1	2	2	0	3	0
1960	Riverside	23	0	0	3	1	1	2	0
1960	Monza	16	0	0	2	1	0	2	1
1960	Silverstone	24	0	0	4	1	1	0	2
1960	Buenos Aires	22	0	0	3	0	3	1	1
1960	Indianapolis	33	0	0	0	0	0	0	0
1961	Monza	32	0	1	12	4	0	0	3
1961	Nürburgring	26	0	0	6	2	0	0	2
1961	Aintree	30	1	0	6	1	1	3	1
1961	Spa-Francorchamps	21	0	0	7	0	0	1	0
1961	Zandvoort	15	0	0	0	0	0	0	0
1961	Monaco	16	0	0	2	0	0	1	0
1961	Watkins Glen	19	0	0	5	1	1	1	0
1961	Reims	26	0	0	9	1	0	1	0
1962	Nürburgring	26	0	0	1	2	0	3	3
1962	Watkins Glen	18	0	1	1	1	0	2	0
1962	East London	17	0	0	3	0	0	1	2
1962	Monza	21	0	0	3	0	1	2	1
1962	Aintree	21	0	1	3	0	0	1	0
1962	Rouen-les-Essarts	17	0	1	2	1	0	1	2
1962	Spa-Francorchamps	19	0	0	2	2	1	2	1
1962	Monaco	16	0	0	2	2	0	2	2
1962	Zandvoort	19	0	0	0	3	4	3	0
1963	Nürburgring	22	0	1	1	6	0	3	1
1963	East London	20	0	0	3	0	0	3	0
1963	Mexico	21	1	0	4	0	1	1	3
1963	Watkins Glen	21	0	0	7	0	0	2	1
1963	Monza	20	0	0	3	0	0	1	0
1963	Silverstone	23	2	0	6	0	0	2	0
1963	Zandvoort	19	0	0	5	0	1	2	0
1963	Spa-Francorchamps	20	0	0	5	2	1	4	0
1963	Reims	19	0	0	2	0	0	3	1
1963	Monaco	15	0	0	2	1	0	3	0
1964	Nürburgring	22	0	0	5	0	0	1	2
1964	Mexico	19	0	0	3	0	1	1	1
1964	Monza	20	0	1	4	0	0	1	0
1964	Monaco	16	0	0	3	0	1	2	0
1964	Zandvoort	17	0	0	3	0	0	0	1
1964	Brands Hatch	23	0	1	1	1	1	3	2
1964	Watkins Glen	18	0	0	7	0	1	1	1
1964	Zeltweg	20	0	0	4	0	1	2	4
1964	Rouen-les-Essarts	17	0	0	2	1	1	1	0
1964	Spa-Francorchamps	18	1	0	6	0	1	0	0
1965	Nürburgring	19	0	0	6	0	0	4	1
1965	East London	19	0	0	1	0	1	2	0
1965	Zandvoort	17	0	0	3	0	0	1	0
1965	Silverstone	20	0	0	5	0	0	1	0
1965	Clermont-Ferrand	17	0	0	5	1	0	1	1
1965	Spa-Francorchamps	19	0	0	4	0	0	1	0
1965	Monza	23	0	0	4	0	0	4	1
1965	Watkins Glen	18	0	0	3	0	1	0	1
1965	Monaco	16	0	0	2	1	0	3	0
1965	Mexico	17	0	0	5	0	0	2	2
1966	Mexico	18	0	0	5	0	0	3	2
1966	Monza	19	0	0	7	1	0	1	1
1966	Reims	14	0	0	4	0	0	2	0
1966	Brands Hatch	18	0	0	4	0	0	2	1
1966	Zandvoort	17	0	0	4	2	1	0	1
1966	Nürburgring	27	0	0	5	5	1	3	1
1966	Monaco	14	0	0	3	0	0	5	2
1966	Spa-Francorchamps	13	0	0	1	7	0	0	0
1966	Watkins Glen	17	1	0	7	0	0	3	0
1967	Monza	18	0	0	10	1	0	0	0
1967	Nürburgring	24	0	1	3	0	0	4	5
1967	Silverstone	20	0	0	8	0	0	2	0
1967	Le Mans	14	0	0	4	0	0	3	1
1967	Zandvoort	17	0	1	1	1	0	2	2
1967	Monaco	16	0	0	5	1	1	2	1
1967	Mosport Park	16	0	0	3	0	1	0	1
1967	Mexico	19	0	1	4	0	0	0	2
1967	Watkins Glen	18	0	0	10	0	0	0	1
1967	Kyalami	16	0	0	7	2	0	0	1
1967	Spa-Francorchamps	17	0	0	4	1	1	1	0
1968	Kyalami	22	0	1	9	2	0	1	0
1968	Jarama	13	0	0	5	1	0	2	0
1968	Brands Hatch	19	0	1	8	0	0	1	1
1968	Nürburgring	20	0	0	3	3	0	0	0
1968	Monaco	16	0	0	1	6	0	2	2
1968	Mexico	21	0	0	7	0	0	0	4
1968	Watkins Glen	19	0	0	7	1	0	3	2
1968	Spa-Francorchamps	18	0	2	3	1	0	1	3
1968	Zandvoort	18	0	0	3	2	2	1	1
1968	Rouen-les-Essarts	16	0	0	2	2	0	1	0
1968	Monza	20	0	1	8	3	0	1	1
1968	Mont-Tremblant	19	0	0	4	1	0	6	2
1969	Monza	14	0	0	4	0	0	0	0
1969	Kyalami	17	0	1	6	0	0	1	1
1969	Nürburgring	21	0	0	4	3	0	2	0
1969	Mexico	16	0	0	1	1	0	2	1
1969	Silverstone	17	0	0	3	0	0	2	2
1969	Clermont-Ferrand	13	0	0	2	0	1	0	1
1969	Zandvoort	15	0	1	0	0	0	2	2
1969	Montjuïc Park	14	0	0	6	2	0	0	0
1969	Mosport Park	19	1	0	7	2	0	2	0
1969	Monaco	16	0	3	1	3	0	0	2
1969	Watkins Glen	16	0	1	6	1	0	1	1
1970	Brands Hatch	21	0	1	6	2	0	0	3
1970	Spa-Francorchamps	16	0	0	4	0	0	3	1
1970	Watkins Glen	24	0	0	6	0	0	1	3
1970	Monza	19	0	0	8	1	1	1	0
1970	Österreichring	24	0	1	6	0	0	0	2
1970	Hockenheim	21	0	0	8	0	1	1	2
1970	Clermont-Ferrand	19	0	0	2	1	0	2	0
1970	Zandvoort	19	0	0	4	2	0	2	0
1970	Monaco	15	0	0	3	1	0	2	1
1970	Jarama	16	0	0	7	2	1	1	0
1970	Mexico	17	0	0	7	1	0	0	0
1970	Kyalami	23	0	0	6	1	0	1	2
1970	Mont-Tremblant	16	0	0	4	0	0	1	1
1971	Nürburgring	22	1	0	5	3	1	0	0
1971	Österreichring	20	0	1	6	0	0	0	1
1971	Montjuïc Park	21	0	0	6	0	0	0	4
1971	Watkins Glen	26	0	0	4	2	0	1	2
1971	Silverstone	22	0	0	7	2	0	0	1
1971	Kyalami	25	0	0	6	1	1	2	2
1971	Zandvoort	21	2	0	2	3	0	0	2
1971	Le Castellet	22	0	0	7	0	1	1	0
1971	Monaco	18	0	1	2	3	0	2	0
1971	Mosport Park	22	0	0	3	3	0	0	0
1971	Monza	22	0	0	6	0	0	3	3
1972	Buenos Aires	21	1	0	6	1	0	1	1
1972	Brands Hatch	26	0	0	2	6	0	2	3
1972	Monza	25	0	2	2	4	1	1	2
1972	Mosport Park	22	2	0	2	1	1	3	0
1972	Watkins Glen	30	0	0	8	0	0	2	2
1972	Österreichring	23	0	1	6	0	0	0	1
1972	Nürburgring	26	0	0	6	1	2	1	1
1972	Clermont-Ferrand	23	0	0	2	0	1	2	0
1972	Monaco	24	1	0	1	5	0	0	0
1972	Jarama	25	0	0	6	4	0	3	1
1972	Kyalami	23	0	0	4	0	0	1	1
1972	Nivelles	24	0	0	5	2	0	2	1
1973	Monza	23	0	1	2	1	1	1	2
1973	Österreichring	22	0	1	5	2	0	2	1
1973	Montjuïc Park	22	0	3	3	1	0	3	0
1973	Silverstone	28	0	0	2	9	0	0	4
1973	Le Castellet	25	0	0	4	2	0	3	0
1973	Monaco	25	0	2	3	1	0	7	1
1973	Zolder	23	0	1	5	4	0	0	2
1973	Kyalami	21	0	1	3	5	0	1	0
1973	Watkins Glen	24	1	0	3	0	0	0	4
1973	Zandvoort	23	0	0	4	4	4	0	0
1973	Nürburgring	22	0	0	3	2	0	1	0
1973	Anderstorp	20	0	1	2	1	0	0	2
1973	Mosport Park	24	0	0	2	3	0	1	0
1973	Interlagos	20	0	1	2	0	1	3	1
1973	Buenos Aires	18	0	0	4	0	0	2	2
1974	Mosport Park	24	0	1	2	2	0	2	1
1974	Anderstorp	26	1	0	5	0	1	4	4
1974	Österreichring	23	0	1	6	2	1	1	0
1974	Nürburgring	26	1	0	2	3	0	2	3
1974	Kyalami	27	0	1	2	0	0	3	2
1974	Zandvoort	25	1	0	2	2	0	6	2
1974	Nivelles	31	0	3	4	2	0	2	2
1974	Brands Hatch	24	0	0	4	1	3	0	2
1974	Monaco	25	0	1	2	11	0	2	0
1974	Buenos Aires	25	0	0	6	2	0	3	1
1974	Interlagos	25	0	1	3	0	0	2	2
1974	Watkins Glen	25	2	1	4	1	1	0	4
1974	Dijon-Prenois	22	0	0	1	2	0	2	1
1974	Jarama	24	0	1	6	2	0	1	0
1974	Monza	25	0	0	7	1	1	3	2
1975	Nürburgring	24	0	5	3	3	0	1	2
1975	Silverstone	26	0	0	3	3	0	1	0
1975	Anderstorp	26	0	1	3	2	1	2	0
1975	Le Castellet	25	0	1	2	0	0	3	1
1975	Zandvoort	24	0	0	3	3	0	0	2
1975	Österreichring	25	0	0	4	2	2	0	0
1975	Interlagos	23	0	0	4	2	1	0	1
1975	Monza	26	0	1	3	3	0	2	3
1975	Watkins Glen	20	0	1	2	4	1	0	2
1975	Kyalami	24	0	0	4	1	0	1	1
1975	Buenos Aires	21	1	2	2	1	0	1	0
1975	Zolder	24	0	2	2	3	1	3	1
1975	Monaco	18	0	1	1	5	1	0	1
1975	Montjuïc Park	23	0	0	2	9	2	1	1
1976	Österreichring	24	0	1	3	5	0	1	2
1976	Brands Hatch	26	3	0	8	1	1	3	1
1976	Jarama	24	0	0	3	2	1	5	0
1976	Le Castellet	27	0	0	3	1	0	2	2
1976	Watkins Glen	25	0	1	3	4	0	0	3
1976	Interlagos	22	0	0	4	3	0	1	0
1976	Nürburgring	26	0	1	1	6	1	2	0
1976	Monza	26	0	0	4	2	1	0	0
1976	Long Beach	18	0	0	1	6	0	1	0
1976	Mosport Park	24	0	0	2	0	1	0	1
1976	Zolder	26	0	1	5	2	1	3	2
1976	Monaco	20	0	0	2	3	0	0	1
1976	Kyalami	25	0	0	4	2	0	1	1
1976	Zandvoort	26	0	0	6	2	3	3	0
1976	Anderstorp	26	0	0	5	1	2	0	3
1976	Fuji	25	0	2	5	1	5	1	0
1977	Silverstone	26	0	0	7	2	1	1	0
1977	Jarama	24	0	0	4	4	0	0	2
1977	Mosport Park	25	0	0	6	6	0	1	0
1977	Zolder	26	0	0	3	6	2	0	0
1977	Long Beach	22	1	2	1	3	0	4	0
1977	Kyalami	23	0	0	4	4	0	0	0
1977	Anderstorp	24	0	1	2	1	0	0	1
1977	Österreichring	26	0	0	4	2	1	1	1
1977	Dijon-Prenois	21	0	0	1	4	1	2	0
1977	Monza	24	0	0	8	3	1	1	2
1977	Hockenheim	25	1	0	6	3	2	3	0
1977	Watkins Glen	26	0	0	2	3	2	0	0
1977	Fuji	23	0	0	4	5	0	2	0
1977	Zandvoort	26	1	0	6	4	0	0	2
1977	Interlagos	22	0	0	5	8	0	1	1
1977	Monaco	20	0	2	4	0	0	2	0
1977	Buenos Aires	18	0	0	4	1	2	3	1
1978	Watkins Glen	26	0	0	7	0	0	2	1
1978	Jacarepagua	22	0	2	2	4	3	0	0
1978	Buenos Aires	24	0	0	4	0	0	1	1
1978	Zolder	23	0	0	1	5	1	1	2
1978	Jarama	24	0	0	5	1	0	1	2
1978	Österreichring	24	2	0	0	11	0	2	0
1978	Long Beach	22	0	1	2	3	0	4	0
1978	Montréal	21	0	1	3	4	0	1	0
1978	Hockenheim	24	2	0	6	4	0	1	0
1978	Zandvoort	26	1	0	4	3	1	2	3
1978	Monza	23	0	0	4	5	0	0	0
1978	Monaco	20	0	1	1	1	1	3	2
1978	Brands Hatch	25	0	2	5	1	0	6	1
1978	Le Castellet	26	0	0	7	0	0	0	1
1978	Anderstorp	23	0	2	4	1	0	0	1
1978	Kyalami	26	0	0	9	3	0	1	1
1979	Buenos Aires	24	0	0	4	5	1	1	1
1979	Jarama	24	0	1	8	0	0	1	0
1979	Watkins Glen	24	0	2	3	7	2	1	1
1979	Monza	24	0	0	5	2	1	1	1
1979	Zolder	24	0	1	4	5	2	1	0
1979	Kyalami	24	0	1	2	5	1	0	1
1979	Zandvoort	24	0	1	4	4	2	4	2
1979	Silverstone	24	0	1	5	0	1	2	1
1979	Hockenheim	24	0	3	3	1	1	1	3
1979	Dijon-Prenois	24	0	0	2	1	1	0	2
1979	Monaco	20	0	1	1	3	0	2	5
1979	Long Beach	24	2	2	3	5	0	3	0
1979	Interlagos	23	0	0	2	2	1	1	2
1979	Montréal	24	0	1	7	2	1	2	1
1979	Österreichring	24	0	1	6	1	1	2	3
1980	Watkins Glen	22	0	0	2	4	0	1	4
1980	Österreichring	24	0	2	4	1	0	0	1
1980	Interlagos	24	0	0	4	1	0	1	2
1980	Monaco	19	0	0	1	6	0	1	2
1980	Zolder	23	0	0	2	3	1	4	1
1980	Kyalami	23	0	2	2	4	0	2	0
1980	Le Castellet	24	0	0	1	1	0	6	2
1980	Zandvoort	24	0	1	3	6	0	1	2
1980	Long Beach	24	0	1	1	7	0	4	1
1980	Brands Hatch	23	0	1	4	2	0	1	2
1980	Buenos Aires	22	0	0	8	3	0	3	1
1980	Hockenheim	24	0	1	3	0	0	3	1
1980	Montréal	24	0	0	4	4	1	2	1
1980	Imola	24	0	2	3	4	0	1	1
1981	Long Beach	24	0	0	5	8	2	1	0
1981	Imola	23	0	0	2	6	0	2	0
1981	Monza	24	0	3	1	3	3	3	1
1981	Zandvoort	24	0	1	0	8	2	1	2
1981	Monaco	20	0	0	4	6	0	2	1
1981	Zolder	24	0	0	2	4	1	4	0
1981	Silverstone	24	1	0	3	5	0	2	2
1981	Montréal	24	0	0	1	4	6	0	1
1981	Hockenheim	23	0	1	5	0	1	0	1
1981	Jarama	23	0	1	2	2	1	1	0
1981	Caesars Palace	23	1	0	2	1	2	2	2
1981	Österreichring	23	0	1	8	1	0	1	1
1981	Dijon-Prenois	23	0	1	1	0	1	0	3
1981	Buenos Aires	24	0	0	6	0	0	3	2
1981	Jacarepagua	22	0	0	2	6	0	0	1
1982	Imola	12	1	0	4	0	0	1	1
1982	Le Castellet	26	0	1	4	3	1	1	0
1982	Brands Hatch	25	0	1	5	5	2	1	1
1982	Kyalami	26	0	0	4	3	1	0	0
1982	Long Beach	26	1	0	0	11	1	2	1
1982	Österreichring	26	0	0	6	5	2	2	3
1982	Zandvoort	26	0	0	6	1	1	0	3
1982	Hockenheim	25	0	1	3	3	1	3	3
1982	Zolder	26	1	1	4	4	1	4	2
1982	Montréal	25	0	0	2	4	2	5	1
1982	Monaco	20	0	0	3	0	1	2	4
1982	Detroit	24	0	0	1	9	1	2	0
1982	Jacarepagua	26	2	2	3	6	1	0	2
1982	Caesars Palace	23	0	0	6	1	1	1	1
1982	Monza	25	0	2	3	3	0	3	2
1982	Dijon-Prenois	24	0	0	5	0	1	1	1
1983	Zandvoort	26	1	1	3	2	3	0	2
1983	Hockenheim	26	1	0	12	0	0	0	0
1983	Kyalami	24	1	0	9	1	1	0	0
1983	Brands Hatch	25	0	1	6	1	0	2	0
1983	Monaco	20	0	0	0	7	2	3	1
1983	Long Beach	26	0	0	0	5	1	3	4
1983	Jacarepagua	25	2	0	5	0	2	0	2
1983	Österreichring	26	0	0	5	5	1	1	1
1983	Monza	26	0	0	8	0	3	2	0
1983	Silverstone	26	0	0	8	0	0	1	0
1983	Le Castellet	26	0	1	6	1	2	2	1
1983	Imola	26	0	0	3	7	0	0	3
1983	Montréal	26	1	1	5	0	1	5	3
1983	Detroit	25	0	2	4	1	3	2	1
1983	Spa-Francorchamps	26	0	1	5	2	0	1	3
1984	Österreichring	24	0	0	9	0	1	1	1
1984	Nürburgring	26	0	0	8	5	0	1	0
1984	Monaco	20	1	0	0	4	6	0	1
1984	Zolder	26	2	0	5	1	3	3	2
1984	Montréal	25	2	1	8	1	0	1	1
1984	Dallas	25	1	0	2	10	1	1	1
1984	Jacarepagua	26	2	1	6	1	4	3	1
1984	Imola	26	2	0	10	3	2	0	0
1984	Estoril	27	0	1	3	0	2	4	0
1984	Hockenheim	26	1	0	10	1	3	2	0
1984	Brands Hatch	26	2	0	2	4	4	2	0
1984	Dijon-Prenois	26	2	0	7	2	1	1	0
1984	Kyalami	26	2	1	6	0	1	2	2
1984	Detroit	26	2	2	6	5	2	4	0
1984	Monza	25	0	0	8	0	3	2	2
1984	Zandvoort	27	2	1	7	1	2	0	1
1985	Österreichring	26	0	0	13	1	1	0	1
1985	Nürburgring	27	0	1	8	1	1	4	0
1985	Imola	24	1	1	8	1	3	0	0
1985	Silverstone	25	0	0	3	4	2	5	0
1985	Jacarepagua	25	0	1	5	2	3	0	1
1985	Estoril	25	0	0	2	1	9	1	3
1985	Le Castellet	25	0	0	4	3	0	3	0
1985	Detroit	25	0	1	2	7	1	2	0
1985	Montréal	25	0	0	3	4	0	1	0
1985	Monaco	20	0	0	3	4	1	0	1
1985	Brands Hatch	26	0	0	10	3	0	0	1
1985	Adelaïde	24	1	1	7	0	2	5	0
1985	Monza	26	0	0	9	0	1	3	0
1985	Zandvoort	25	0	1	9	1	1	2	1
1985	Spa-Francorchamps	23	0	0	2	2	1	4	1
1985	Kyalami	20	0	0	8	3	1	0	1
1986	Estoril	26	0	2	5	2	2	2	0
1986	Detroit	25	0	2	4	3	3	2	1
1986	Jerez de la Frontera	24	0	2	6	2	0	5	1
1986	Adelaïde	24	0	3	3	2	1	2	3
1986	Hockenheim	26	0	0	7	1	1	4	1
1986	Montréal	24	0	0	6	2	2	2	0
1986	Spa-Francorchamps	24	0	0	6	1	2	2	1
1986	Österreichring	25	0	1	10	0	1	1	1
1986	Mexico	25	0	1	5	1	1	0	1
1986	Monaco	20	0	2	3	3	0	0	0
1986	Jacarepagua	25	0	1	11	1	0	1	1
1986	Brands Hatch	25	0	1	5	4	1	3	2
1986	Imola	26	0	4	7	1	2	1	1
1986	Le Castellet	25	0	1	6	6	1	0	0
1986	Hungaroring	26	0	0	4	4	2	1	5
1986	Monza	27	1	3	5	2	2	3	0
1987	Estoril	26	0	1	5	0	2	2	2
1987	Jacarepagua	22	1	0	5	0	2	0	2
1987	Jerez de la Frontera	26	0	0	4	2	0	3	1
1987	Hungaroring	26	0	0	2	2	3	5	0
1987	Detroit	26	0	2	1	4	1	5	1
1987	Spa-Francorchamps	26	0	2	8	2	0	3	1
1987	Adelaïde	26	1	4	3	1	5	2	1
1987	Mexico	26	0	0	8	5	3	1	0
1987	Imola	25	0	0	6	0	2	3	1
1987	Monza	26	0	0	4	1	1	2	2
1987	Monaco	24	0	0	5	1	2	2	1
1987	Suzuka	26	0	0	7	2	2	0	0
1987	Silverstone	24	0	0	8	1	2	3	1
1987	Österreichring	25	1	1	7	1	1	0	0
1987	Hockenheim	25	0	0	14	0	1	1	2
1987	Le Castellet	25	0	1	11	0	0	3	1
1988	Silverstone	26	0	0	1	2	0	3	1
1988	Mexico	26	0	0	5	2	1	1	1
1988	Monza	26	0	0	7	1	1	3	1
1988	Spa-Francorchamps	25	2	0	6	2	1	1	0
1988	Monaco	25	0	0	2	6	3	3	1
1988	Adelaïde	26	0	1	2	5	2	2	3
1988	Montréal	26	0	0	5	2	1	2	2
1988	Imola	25	0	0	0	0	2	3	2
1988	Estoril	26	0	0	7	2	1	2	2
1988	Hungaroring	26	0	2	6	1	1	1	2
1988	Hockenheim	26	0	0	0	3	3	0	1
1988	Le Castellet	25	0	1	2	0	3	3	1
1988	Detroit	26	0	1	6	3	2	3	2
1988	Suzuka	26	0	1	2	2	4	0	0
1988	Jerez de la Frontera	26	0	1	4	1	1	1	4
1988	Jacarepagua	25	1	0	7	0	1	3	4
1989	Mexico	25	0	1	2	0	2	4	1
1989	Montréal	26	3	0	2	7	4	1	1
1989	Adelaïde	26	0	0	3	9	5	0	1
1989	Hungaroring	26	0	1	1	2	2	6	1
1989	Estoril	26	0	0	2	5	2	0	3
1989	Jacarepagua	26	1	1	4	3	1	0	2
1989	Phoenix	26	1	3	3	2	3	3	2
1989	Silverstone	26	0	0	3	3	0	6	2
1989	Suzuka	26	1	1	6	3	0	4	1
1989	Jerez de la Frontera	26	0	0	4	3	4	2	3
1989	Spa-Francorchamps	26	0	1	0	4	3	1	1
1989	Hockenheim	26	0	1	3	2	5	2	1
1989	Le Castellet	25	0	0	5	1	1	3	2
1989	Monaco	26	0	0	3	1	2	5	0
1989	Imola	24	1	0	4	4	0	3	0
1989	Monza	26	0	1	7	0	2	3	2
1990	Interlagos	26	0	0	1	2	4	2	3
1990	Adelaïde	26	0	1	1	2	3	4	2
1990	Silverstone	25	0	0	5	2	2	2	0
1990	Monza	25	0	1	4	0	3	3	1
1990	Montréal	26	0	1	4	6	1	1	0
1990	Suzuka	25	0	0	5	3	4	2	1
1990	Estoril	25	0	0	2	1	0	4	3
1990	Monaco	26	1	2	3	0	4	6	3
1990	Le Castellet	26	1	1	2	0	1	1	2
1990	Imola	26	0	4	3	2	2	1	1
1990	Hockenheim	25	1	0	6	1	2	3	1
1990	Mexico	26	0	1	2	2	1	0	0
1990	Spa-Francorchamps	26	0	0	3	2	1	1	2
1990	Hungaroring	26	0	1	3	3	0	2	0
1990	Phoenix	25	0	1	2	2	2	2	2
1990	Jerez de la Frontera	25	0	2	2	3	4	2	2
1991	Imola	25	0	1	1	1	5	4	0
1991	Adelaïde	26	0	0	0	6	0	0	0
1991	Suzuka	26	0	1	4	4	3	2	1
1991	Barcelone	26	0	0	2	4	3	0	0
1991	Estoril	26	1	0	5	0	0	2	1
1991	Monza	26	0	3	4	0	1	1	1
1991	Spa-Francorchamps	26	0	0	8	1	1	3	0
1991	Hungaroring	26	0	0	6	0	2	1	0
1991	Hockenheim	26	0	0	5	0	2	4	2
1991	Silverstone	26	0	0	2	3	2	2	3
1991	Magny-Cours	26	0	2	2	2	4	4	0
1991	Mexico	26	0	2	8	0	2	2	0
1991	Montréal	26	0	0	9	0	4	2	1
1991	Monaco	26	0	2	3	4	1	2	2
1991	Interlagos	25	0	0	3	2	4	3	0
1991	Phoenix	26	0	0	3	2	1	8	0
1992	Hungaroring	26	0	0	2	8	4	1	0
1992	Spa-Francorchamps	26	0	0	2	2	2	2	0
1992	Hockenheim	26	0	0	6	0	3	1	0
1992	Silverstone	26	0	1	2	0	1	4	1
1992	Magny-Cours	26	0	0	4	5	4	1	1
1992	Montréal	26	1	0	1	2	1	7	0
1992	Monaco	26	0	0	2	4	1	7	0
1992	Imola	26	0	0	2	2	4	4	0
1992	Barcelone	26	0	0	2	0	11	0	1
1992	Interlagos	26	0	0	4	3	2	5	2
1992	Mexico	26	0	0	4	2	3	3	1
1992	Kyalami	26	0	0	7	2	1	2	1
1992	Monza	26	0	1	5	2	3	4	0
1992	Adelaïde	26	0	1	4	5	0	2	1
1992	Suzuka	26	0	0	4	3	0	4	0
1992	Estoril	26	0	1	3	1	4	2	1
1993	Suzuka	24	0	0	3	3	3	0	1
1993	Montréal	25	0	0	1	2	2	2	0
1993	Interlagos	25	0	0	1	7	3	1	1
1993	Hockenheim	26	0	2	0	1	1	3	2
1993	Imola	25	0	0	3	3	4	4	2
1993	Donington	25	0	0	0	4	2	4	4
1993	Monza	26	0	0	1	9	0	0	2
1993	Barcelone	25	1	0	4	1	2	2	1
1993	Kyalami	26	0	0	3	7	4	4	1
1993	Adelaïde	24	0	1	1	4	1	1	1
1993	Estoril	26	0	0	2	4	1	2	1
1993	Hungaroring	26	0	0	4	4	3	1	2
1993	Silverstone	24	0	1	1	1	5	1	1
1993	Magny-Cours	25	0	0	2	0	2	3	2
1993	Monaco	25	0	0	2	4	0	1	4
1993	Spa-Francorchamps	25	0	2	3	0	2	1	2
1994	Imola	25	0	2	3	4	3	0	0
1994	Hungaroring	26	0	0	1	6	2	2	1
1994	Hockenheim	26	0	0	3	10	2	2	1
1994	Estoril	26	1	0	1	3	2	3	0
1994	Jerez de la Frontera	26	0	0	2	0	3	1	1
1994	Spa-Francorchamps	26	1	1	6	0	4	0	1
1994	Magny-Cours	26	0	0	5	4	2	4	0
1994	Monaco	24	0	0	1	5	3	4	0
1994	Silverstone	25	1	0	7	0	0	1	0
1994	Barcelone	25	0	0	7	0	3	3	1
1994	Interlagos	26	0	0	2	7	3	2	0
1994	Montréal	26	1	0	4	2	2	2	0
1994	Aïda	26	0	1	4	6	2	2	0
1994	Suzuka	26	0	0	3	4	5	1	0
1994	Adelaïde	26	0	0	3	4	3	3	1
1994	Monza	26	0	4	5	2	2	3	0
1995	Interlagos	25	0	0	2	2	4	5	2
1995	Hockenheim	24	0	1	7	1	0	5	1
1995	Barcelone	25	0	0	6	0	0	3	1
1995	Spa-Francorchamps	24	0	0	2	1	4	2	1
1995	Suzuka	23	0	1	0	3	5	1	1
1995	Magny-Cours	23	0	0	0	4	0	3	0
1995	Nürburgring	24	0	0	0	3	5	1	0
1995	Estoril	24	0	0	1	1	2	3	0
1995	Montréal	24	0	0	3	2	4	3	1
1995	Aïda	24	0	0	2	0	3	2	0
1995	Monaco	26	1	2	2	6	0	4	1
1995	Buenos Aires	24	0	0	2	7	3	2	1
1995	Adelaïde	22	0	0	3	6	2	3	0
1995	Imola	26	0	1	1	1	2	4	1
1995	Monza	24	0	2	1	5	3	0	3
1995	Silverstone	24	0	1	1	2	5	2	1
1995	Hungaroring	24	0	1	6	1	1	1	1
1996	Hockenheim	19	0	0	0	2	0	3	1
1996	Spa-Francorchamps	19	0	0	2	4	1	1	1
1996	Suzuka	19	0	1	2	2	1	0	0
1996	Melbourne	20	0	1	2	3	1	1	1
1996	Nürburgring	20	2	0	0	2	2	1	0
1996	Imola	21	0	1	3	0	3	3	0
1996	Montréal	22	0	0	3	4	2	4	1
1996	Magny-Cours	21	1	0	4	0	1	1	2
1996	Estoril	20	0	0	1	1	2	0	0
1996	Hungaroring	20	0	0	3	4	2	1	0
1996	Interlagos	22	0	0	3	1	5	0	1
1996	Buenos Aires	22	0	1	2	3	1	1	4
1996	Monza	20	0	0	3	6	0	1	0
1996	Barcelone	20	1	0	0	5	6	0	2
1996	Silverstone	20	0	2	3	0	0	2	2
1996	Monaco	21	0	0	1	7	2	2	2
1997	Monza	22	0	1	2	2	0	2	1
1997	Montréal	22	0	0	2	6	0	3	0
1997	Hockenheim	22	0	0	2	6	1	2	0
1997	Spielberg	22	1	0	4	2	0	1	0
1997	Suzuka	21	1	0	3	2	0	2	0
1997	Melbourne	21	0	1	3	4	1	1	1
1997	Barcelone	22	0	1	4	0	0	1	1
1997	Imola	21	0	0	2	3	2	3	0
1997	Spa-Francorchamps	22	1	0	0	1	5	0	0
1997	Interlagos	22	0	0	0	1	2	0	1
1997	Magny-Cours	22	0	2	3	2	3	0	0
1997	Hungaroring	22	0	0	4	2	1	0	2
1997	Monaco	22	0	1	0	7	4	0	0
1997	Jerez de la Frontera	22	0	0	1	1	1	2	0
1997	Nürburgring	22	0	0	4	4	1	2	1
1997	Buenos Aires	22	0	0	5	3	2	1	1
1997	Silverstone	22	0	1	6	2	1	1	0
1998	Interlagos	22	1	0	3	0	2	4	1
1998	Monza	22	0	1	2	0	3	2	1
1998	Hockenheim	21	0	0	0	0	0	4	1
1998	Suzuka	21	0	1	1	2	1	1	3
1998	Spielberg	22	0	1	2	4	2	1	0
1998	Melbourne	22	0	0	3	3	0	5	2
1998	Nürburgring	21	0	1	2	0	0	1	1
1998	Barcelone	21	0	0	3	2	0	0	0
1998	Magny-Cours	22	0	0	3	1	0	1	0
1998	Silverstone	22	0	0	1	0	10	1	1
1998	Buenos Aires	22	0	1	0	3	0	3	0
1998	Monaco	21	0	1	1	4	0	1	2
1998	Spa-Francorchamps	22	0	0	1	11	2	0	0
1998	Montréal	22	0	0	1	4	4	2	1
1998	Imola	22	0	1	5	2	0	2	1
1998	Hungaroring	21	0	0	2	0	0	3	0
1999	Melbourne	21	0	1	1	4	0	3	4
1999	Hockenheim	22	0	1	3	4	0	0	3
1999	Imola	22	0	0	3	6	0	1	1
1999	Nürburgring	22	0	1	0	6	2	3	0
1999	Silverstone	22	0	1	1	1	0	2	1
1999	Monaco	22	0	0	1	6	0	4	2
1999	Interlagos	21	0	0	1	2	1	5	3
1999	Spielberg	22	0	0	2	0	4	1	0
1999	Monza	22	0	1	0	5	2	2	1
1999	Spa-Francorchamps	22	0	1	0	0	0	3	2
1999	Montréal	22	0	0	0	6	0	4	1
1999	Suzuka	22	0	0	2	0	3	3	0
1999	Hungaroring	22	0	0	1	0	1	3	0
1999	Magny-Cours	22	1	0	0	7	2	1	0
1999	Barcelone	22	1	0	0	0	1	6	2
1999	Kuala Lumpur	21	0	0	3	4	1	2	0
2000	Hockenheim	22	0	0	1	5	2	2	0
2000	Montréal	22	0	1	2	1	0	1	1
2000	Monaco	22	0	0	1	7	0	3	1
2000	Imola	22	0	0	2	2	0	1	2
2000	Kuala Lumpur	22	0	1	2	4	1	0	1
2000	Barcelone	22	0	0	0	3	0	1	1
2000	Silverstone	22	0	0	1	0	3	0	1
2000	Indianapolis	22	0	1	6	2	0	1	0
2000	Spielberg	22	0	1	2	5	0	2	0
2000	Monza	22	0	0	0	8	2	0	0
2000	Melbourne	22	1	0	4	0	2	3	3
2000	Magny-Cours	22	0	0	1	3	0	3	0
2000	Suzuka	22	0	0	2	0	3	0	2
2000	Spa-Francorchamps	22	0	0	2	1	1	1	0
2000	Hungaroring	22	0	1	2	0	1	1	1
2000	Nürburgring	21	0	0	2	4	1	1	1
2000	Interlagos	20	1	0	5	1	1	2	0
2001	Monza	22	0	0	4	1	2	2	0
2001	Hockenheim	22	0	0	5	4	0	2	1
2001	Barcelone	22	0	0	2	2	1	0	1
2001	Monaco	22	0	1	1	4	0	2	4
2001	Spa-Francorchamps	22	0	0	2	3	0	2	2
2001	Spielberg	22	1	1	2	0	1	4	2
2001	Indianapolis	22	0	0	1	0	1	3	2
2001	Hungaroring	22	0	0	2	4	3	0	1
2001	Silverstone	21	0	0	2	3	0	0	0
2001	Magny-Cours	21	0	0	4	0	0	0	0
2001	Nürburgring	22	0	0	2	0	2	3	0
2001	Montréal	22	0	2	3	5	0	1	0
2001	Kuala Lumpur	22	0	0	2	5	0	1	0
2001	Suzuka	22	0	1	1	2	1	0	0
2001	Melbourne	22	0	1	3	4	0	0	0
2001	Interlagos	22	0	0	2	4	3	2	1
2001	Imola	22	0	1	6	1	0	1	1
2002	Indianapolis	20	0	0	2	0	0	1	1
2002	Montréal	22	0	2	3	0	1	1	0
2002	Barcelone	19	0	0	1	1	1	0	4
2002	Monza	20	0	1	2	0	1	0	3
2002	Spa-Francorchamps	20	0	0	5	1	0	1	1
2002	Spielberg	22	0	0	4	3	0	0	3
2002	Suzuka	19	0	0	2	2	1	1	2
2002	Hockenheim	21	0	1	6	1	1	2	1
2002	Imola	21	0	0	4	0	0	5	1
2002	Hungaroring	20	0	0	1	0	2	1	0
2002	Magny-Cours	18	0	0	3	1	0	1	2
2002	Silverstone	21	0	0	3	1	2	3	0
2002	Nürburgring	22	0	0	0	2	0	1	3
2002	Monaco	22	0	0	2	8	0	0	0
2002	Interlagos	22	0	2	2	1	0	1	3
2002	Kuala Lumpur	22	0	0	5	0	1	3	0
2002	Melbourne	22	2	0	0	10	1	1	0
2003	Spielberg	19	0	1	4	0	0	1	0
2003	Suzuka	20	0	0	2	0	1	0	1
2003	Silverstone	20	0	0	1	0	0	1	1
2003	Monza	20	0	2	2	0	0	2	1
2003	Melbourne	20	0	0	1	2	1	0	3
2003	Montréal	20	0	1	2	1	1	4	0
2003	Indianapolis	20	0	0	3	3	2	1	0
2003	Hungaroring	20	0	0	3	1	1	1	1
2003	Hockenheim	20	0	0	0	6	0	0	1
2003	Magny-Cours	20	0	0	3	0	1	0	0
2003	Monaco	19	0	0	4	1	1	0	0
2003	Barcelone	20	0	0	1	4	1	1	1
2003	Imola	20	0	0	1	0	2	1	1
2003	Interlagos	20	0	0	1	7	2	0	0
2003	Kuala Lumpur	19	0	0	2	0	3	1	0
2003	Nürburgring	20	0	1	3	0	0	1	0
2004	Montréal	20	4	0	1	1	0	3	1
2004	Nürburgring	20	0	0	3	2	0	0	0
2004	Imola	20	0	1	0	1	1	1	0
2004	Indianapolis	20	1	1	2	5	0	2	0
2004	Hockenheim	20	0	1	0	1	0	0	1
2004	Silverstone	20	0	0	1	1	1	0	1
2004	Magny-Cours	20	0	0	1	1	0	0	0
2004	Monaco	20	0	0	2	5	0	3	0
2004	Barcelone	20	0	2	0	0	1	0	4
2004	Sakhir	20	0	0	2	0	1	0	0
2004	Kuala Lumpur	20	0	0	1	0	1	2	0
2004	Melbourne	19	0	0	2	0	1	2	0
2004	Monza	20	0	0	2	2	1	0	0
2004	Suzuka	20	0	0	1	3	0	0	0
2004	Interlagos	20	0	0	1	1	0	1	0
2004	Spa-Francorchamps	20	0	1	0	6	1	1	0
2004	Hungaroring	20	0	1	1	0	2	1	0
2004	Shanghai	20	0	1	0	2	0	1	0
2005	Sakhir	19	0	1	2	0	1	1	1
2005	Shanghai	20	0	0	1	1	1	1	0
2005	Suzuka	20	1	0	0	3	0	0	0
2005	Monza	20	0	0	0	0	0	0	0
2005	Istanbul	20	0	2	1	0	1	1	0
2005	Silverstone	20	0	0	0	0	1	0	0
2005	Magny-Cours	20	0	2	1	0	0	0	2
2005	Indianapolis	6	0	0	0	0	0	0	0
2005	Montréal	20	1	2	1	3	0	0	2
2005	Barcelone	18	0	1	1	2	0	1	0
2005	Imola	20	2	0	0	1	1	3	0
2005	Kuala Lumpur	20	0	1	2	3	1	0	0
2005	Melbourne	20	0	0	0	2	0	1	0
2005	Hockenheim	19	0	0	0	0	0	0	1
2005	Interlagos	19	0	0	1	2	0	1	0
2005	Spa-Francorchamps	20	0	0	1	4	0	0	0
2005	Nürburgring	20	0	0	0	1	1	0	0
2005	Monaco	18	0	1	0	2	0	0	1
2005	Hungaroring	19	0	0	1	2	0	1	1
2006	Hockenheim	22	2	1	3	2	0	2	0
2006	Istanbul	21	0	0	1	3	2	0	0
2006	Interlagos	22	0	0	0	2	0	1	2
2006	Magny-Cours	22	0	2	2	0	0	1	1
2006	Shanghai	22	1	0	1	1	1	0	2
2006	Hungaroring	22	1	1	1	5	1	0	0
2006	Suzuka	22	0	0	1	1	0	1	1
2006	Silverstone	22	0	0	1	3	0	0	0
2006	Barcelone	22	0	0	1	0	2	1	1
2006	Sakhir	22	0	0	2	0	0	1	1
2006	Kuala Lumpur	22	0	0	3	1	0	1	3
2006	Imola	22	0	0	0	1	2	1	2
2006	Melbourne	22	0	0	0	6	1	1	1
2006	Montréal	22	0	0	2	4	1	0	0
2006	Indianapolis	22	0	1	1	10	0	1	0
2006	Nürburgring	22	0	0	3	2	0	1	3
2006	Monaco	22	0	0	2	1	1	1	0
2006	Monza	22	0	1	2	0	0	0	2
2007	Spa-Francorchamps	22	0	0	1	0	0	0	4
2007	Barcelone	22	0	1	1	1	2	1	2
2007	Monza	22	0	0	0	1	0	0	1
2007	Silverstone	22	0	1	1	1	0	0	3
2007	Melbourne	22	0	1	0	3	0	1	0
2007	Istanbul	22	0	0	0	0	0	0	1
2007	Interlagos	22	0	1	2	3	0	1	1
2007	Magny-Cours	22	0	0	0	3	1	1	0
2007	Indianapolis	22	0	0	0	3	1	1	0
2007	Kuala Lumpur	22	0	1	1	1	0	0	1
2007	Sakhir	22	0	0	1	2	0	2	1
2007	Hungaroring	22	0	0	1	2	1	0	0
2007	Shanghai	22	0	1	0	1	1	0	2
2007	Montréal	22	2	0	0	6	0	2	0
2007	Fuji	22	0	0	0	4	2	0	1
2007	Nürburgring	22	0	0	0	6	0	0	3
2007	Monaco	22	0	0	0	2	0	1	0
2008	Spa-Francorchamps	20	0	0	0	1	0	1	0
2008	Istanbul	20	0	0	0	2	1	0	0
2008	Monza	20	0	0	0	1	0	0	0
2008	Hockenheim	20	0	0	1	2	0	0	0
2008	Fuji	20	0	1	1	1	0	1	1
2008	Shanghai	20	0	0	0	1	0	1	1
2008	Kuala Lumpur	22	0	0	1	2	1	0	1
2008	Magny-Cours	20	0	0	0	1	0	0	0
2008	Interlagos	20	0	0	0	2	0	0	0
2008	Melbourne	22	1	0	1	9	1	1	1
2008	Valencia	20	0	0	1	2	0	0	0
2008	Hungaroring	20	0	1	1	0	0	0	0
2008	Barcelone	22	0	0	2	6	0	0	1
2008	Silverstone	20	0	0	0	3	4	0	0
2008	Singapour	20	0	0	1	2	0	1	1
2008	Monaco	20	0	0	0	5	0	1	0
2008	Montréal	20	0	1	0	4	1	1	0
2008	Sakhir	22	0	0	0	2	0	1	0
2009	Monza	20	0	0	1	1	0	2	0
2009	Silverstone	20	0	0	1	0	0	0	1
2009	Istanbul	20	0	1	0	0	0	1	0
2009	Suzuka	19	0	0	0	1	0	1	0
2009	Sakhir	20	0	0	1	0	0	0	0
2009	Interlagos	20	0	0	0	4	1	1	0
2009	Melbourne	20	1	0	0	2	1	0	1
2009	Yas Marina	20	0	1	0	0	0	1	0
2009	Valencia	20	0	1	1	0	0	0	0
2009	Nürburgring	20	0	0	0	0	0	0	2
2009	Barcelone	20	0	0	0	4	0	1	1
2009	Hungaroring	19	0	0	2	0	0	0	1
2009	Monaco	20	0	1	0	4	0	0	0
2009	Singapour	20	0	3	0	2	0	1	0
2009	Shanghai	20	0	0	0	1	1	1	0
2009	Kuala Lumpur	20	0	0	1	0	1	0	0
2009	Spa-Francorchamps	20	0	2	0	4	0	0	0
2010	Spa-Francorchamps	24	0	0	0	3	0	0	1
2010	Istanbul	24	0	0	1	1	0	0	2
2010	Melbourne	23	0	1	1	4	0	0	3
2010	Valencia	24	0	0	1	2	0	0	0
2010	Kuala Lumpur	22	0	1	1	1	0	1	1
2010	Barcelone	23	0	0	0	1	0	0	3
2010	Monaco	24	0	1	1	2	0	1	4
2010	Sakhir	24	0	0	1	1	0	1	4
2010	Silverstone	24	0	0	1	1	0	1	1
2010	Monza	24	0	0	0	1	0	2	1
2010	Hungaroring	24	0	1	1	1	0	1	1
2010	Hockenheim	24	0	0	0	2	0	2	1
2010	Yeongam	24	0	0	1	7	0	0	1
2010	Suzuka	23	0	1	1	4	0	0	0
2010	Shanghai	23	0	0	1	3	0	1	1
2010	Yas Marina	24	0	0	0	2	0	1	0
2010	Interlagos	23	0	0	0	1	0	0	0
2010	Singapour	24	0	0	0	5	0	0	3
2010	Montréal	24	0	1	1	1	0	1	1
2011	Montréal	24	0	0	0	4	1	1	0
2011	Spa-Francorchamps	24	0	1	0	2	0	0	2
2011	Suzuka	24	0	1	0	0	0	0	0
2011	Shanghai	24	0	1	0	0	0	0	0
2011	Yas Marina	24	0	2	0	0	1	0	1
2011	Yeongam	24	0	0	1	2	0	0	0
2011	Kuala Lumpur	24	0	0	2	1	1	1	2
2011	Singapour	24	0	0	0	2	0	1	0
2011	Istanbul	23	0	1	0	0	0	0	0
2011	Interlagos	24	0	1	1	0	1	1	0
2011	New Delhi	24	0	0	1	2	0	1	1
2011	Monza	23	0	0	1	4	0	2	1
2011	Hungaroring	24	0	0	3	0	0	1	0
2011	Nürburgring	24	0	0	1	1	1	0	1
2011	Silverstone	24	0	2	2	0	0	1	0
2011	Valencia	24	0	0	0	0	0	0	0
2011	Monaco	23	0	0	1	3	0	0	1
2011	Barcelone	24	0	0	0	1	0	2	0
2011	Melbourne	21	2	0	1	1	0	2	1
2012	Interlagos	24	0	0	0	5	0	0	0
2012	Yas Marina	24	0	0	2	5	0	0	0
2012	New Delhi	24	0	2	0	0	0	0	0
2012	Yeongam	24	0	0	0	2	1	0	1
2012	Suzuka	24	0	1	1	1	1	0	1
2012	Shanghai	24	0	1	0	0	0	0	0
2012	Montréal	24	0	3	0	0	0	0	1
2012	Monaco	24	0	0	1	3	2	0	2
2012	Austin	24	0	0	1	0	0	0	1
2012	Singapour	24	0	0	0	3	0	1	1
2012	Monza	24	0	0	1	0	0	0	1
2012	Spa-Francorchamps	24	0	0	0	6	0	0	0
2012	Hungaroring	24	0	0	1	0	0	0	1
2012	Hockenheim	24	0	0	0	0	0	0	1
2012	Silverstone	23	0	0	0	1	0	0	1
2012	Valencia	23	0	1	2	1	0	0	0
2012	Barcelone	24	0	1	0	2	0	2	0
2012	Sakhir	24	0	1	1	0	0	0	0
2012	Kuala Lumpur	24	0	1	0	0	1	0	0
2012	Melbourne	22	0	0	0	3	0	1	2
2013	Silverstone	22	0	0	0	0	0	1	1
2013	Yeongam	22	0	0	1	1	0	0	0
2013	Monaco	22	0	0	1	5	0	0	0
2013	New Delhi	22	0	0	1	1	0	0	1
2013	Suzuka	22	0	0	0	2	0	0	1
2013	Montréal	22	0	1	0	1	0	0	0
2013	Barcelone	22	0	1	0	0	0	0	2
2013	Interlagos	22	0	0	1	1	0	0	1
2013	Austin	22	0	0	0	1	0	0	0
2013	Yas Marina	22	0	0	0	1	0	0	0
2013	Singapour	22	0	0	1	1	0	0	0
2013	Monza	22	0	0	0	1	0	1	0
2013	Spa-Francorchamps	22	0	1	1	1	0	0	0
2013	Hungaroring	22	0	0	0	0	0	1	2
2013	Nürburgring	22	0	0	1	0	1	0	1
2013	Sakhir	22	0	0	0	1	0	0	0
2013	Shanghai	22	0	1	0	2	0	0	1
2013	Kuala Lumpur	22	0	2	0	1	1	0	0
2013	Melbourne	21	0	0	1	1	1	0	0
2014	Monza	22	0	0	0	1	1	0	0
2014	Spa-Francorchamps	22	0	0	2	0	0	0	2
2014	Hockenheim	22	0	0	2	1	1	0	0
2014	Silverstone	22	0	0	0	3	0	1	1
2014	Barcelone	22	0	1	1	0	0	0	0
2014	Shanghai	22	0	0	1	0	0	1	0
2014	Sakhir	22	0	0	1	3	0	1	0
2014	Hungaroring	22	0	0	1	4	1	0	0
2014	Spielberg	22	0	1	0	0	1	0	1
2014	Interlagos	18	0	0	0	0	0	0	1
2014	Sochi	21	0	1	0	0	0	0	1
2014	Yas Marina	20	0	1	2	0	0	0	0
2014	Austin	18	0	0	1	2	0	0	0
2014	Kuala Lumpur	21	0	0	3	1	1	1	0
2014	Monaco	21	0	0	4	3	0	0	0
2014	Suzuka	22	0	0	0	0	1	0	0
2014	Singapour	21	0	0	1	0	3	0	0
2014	Montréal	22	0	1	3	2	0	0	2
2014	Melbourne	21	1	0	2	2	3	0	0
2015	Melbourne	15	0	1	2	1	0	0	0
2015	Sakhir	19	0	1	0	0	1	0	0
2015	Shanghai	20	0	1	1	0	0	1	0
2015	Kuala Lumpur	19	0	1	1	0	2	0	0
2015	Barcelone	20	0	1	0	0	0	0	1
2015	Monaco	20	0	1	1	1	0	0	0